
[
    {
        "key": "group_57c1c1be24cd4",
        "title": "Hours Base",
        "fields": [
            {
                "key": "field_57c1c1dc2c2c6",
                "label": "Open",
                "name": "hd_open",
                "type": "true_false",
                "instructions": "",
                "required": 0,
                "conditional_logic": 0,
                "wrapper": {
                    "width": "15",
                    "class": "",
                    "id": ""
                },
                "message": "",
                "default_value": 1
            },
            {
                "key": "field_57c1c21d2c2c7",
                "label": "Hours",
                "name": "hd_hours",
                "type": "repeater",
                "instructions": "",
                "required": 0,
                "conditional_logic": [
                    [
                        {
                            "field": "field_57c1c1dc2c2c6",
                            "operator": "==",
                            "value": "1"
                        }
                    ]
                ],
                "wrapper": {
                    "width": "85",
                    "class": "",
                    "id": ""
                },
                "collapsed": "",
                "min": 1,
                "max": 3,
                "layout": "block",
                "button_label": "Add Shift",
                "sub_fields": [
                    {
                        "key": "field_57c1c2312c2c8",
                        "label": "Opening Time",
                        "name": "hd_opening_time",
                        "type": "time_picker",
                        "instructions": "",
                        "required": 0,
                        "conditional_logic": [
                            [
                                {
                                    "field": "field_57c1c1dc2c2c6",
                                    "operator": "==",
                                    "value": "1"
                                }
                            ]
                        ],
                        "wrapper": {
                            "width": "50",
                            "class": "",
                            "id": ""
                        },
                        "display_format": "g:i a",
                        "return_format": "H:i:s"
                    },
                    {
                        "key": "field_57c1c2432c2c9",
                        "label": "Closing Time",
                        "name": "hd_closing_time",
                        "type": "time_picker",
                        "instructions": "",
                        "required": 0,
                        "conditional_logic": [
                            [
                                {
                                    "field": "field_57c1c1dc2c2c6",
                                    "operator": "==",
                                    "value": "1"
                                }
                            ]
                        ],
                        "wrapper": {
                            "width": "50",
                            "class": "",
                            "id": ""
                        },
                        "display_format": "g:i a",
                        "return_format": "H:i:s"
                    }
                ]
            }
        ],
        "location": [
            [
                {
                    "param": "options_page",
                    "operator": "==",
                    "value": "site-general-settings"
                }
            ]
        ],
        "menu_order": 0,
        "position": "normal",
        "style": "default",
        "label_placement": "top",
        "instruction_placement": "label",
        "hide_on_screen": "",
        "active": 0,
        "description": ""
    }
]