
[
    {
        "key": "group_57b85634b2fab",
        "title": "Content Module Base",
        "fields": [
            {
                "key": "field_57b865253be59",
                "label": "Content Type",
                "name": "type",
                "type": "select",
                "instructions": "",
                "required": 0,
                "conditional_logic": 0,
                "wrapper": {
                    "width": "33",
                    "class": "",
                    "id": ""
                },
                "choices": {
                    "text": "Text",
                    "image": "Image",
                    "video": "Video",
                    "gallery": "Custom Gallery",
                    "widget": "Widget Area"
                },
                "default_value": [
                    "text"
                ],
                "allow_null": 0,
                "multiple": 0,
                "ui": 0,
                "ajax": 0,
                "return_format": "value",
                "placeholder": ""
            },
            {
                "key": "field_57b865d73be5b",
                "label": "Transparent Background",
                "name": "bkg",
                "type": "true_false",
                "instructions": "",
                "required": 0,
                "conditional_logic": 0,
                "wrapper": {
                    "width": "33",
                    "class": "",
                    "id": ""
                },
                "message": "",
                "default_value": 0
            },
            {
                "key": "field_57b8663f3be5c",
                "label": "Pop up in lightbox",
                "name": "lightbox",
                "type": "true_false",
                "instructions": "",
                "required": 0,
                "conditional_logic": [
                    [
                        {
                            "field": "field_57b865253be59",
                            "operator": "==",
                            "value": "image"
                        }
                    ],
                    [
                        {
                            "field": "field_57b865253be59",
                            "operator": "==",
                            "value": "video"
                        }
                    ],
                    [
                        {
                            "field": "field_57b865253be59",
                            "operator": "==",
                            "value": "gallery"
                        }
                    ]
                ],
                "wrapper": {
                    "width": "33",
                    "class": "",
                    "id": ""
                },
                "message": "",
                "default_value": 0
            },
            {
                "key": "field_57b866a43be5e",
                "label": "Image",
                "name": "image",
                "type": "image",
                "instructions": "",
                "required": 0,
                "conditional_logic": [
                    [
                        {
                            "field": "field_57b865253be59",
                            "operator": "==",
                            "value": "image"
                        }
                    ],
                    [
                        {
                            "field": "field_57b865253be59",
                            "operator": "==",
                            "value": "video"
                        },
                        {
                            "field": "field_57b8663f3be5c",
                            "operator": "==",
                            "value": "1"
                        }
                    ]
                ],
                "wrapper": {
                    "width": "50",
                    "class": "",
                    "id": ""
                },
                "return_format": "array",
                "preview_size": "thumbnail",
                "library": "all",
                "min_width": "",
                "min_height": "",
                "min_size": "",
                "max_width": "",
                "max_height": "",
                "max_size": "",
                "mime_types": ""
            },
            {
                "key": "field_57b867073be61",
                "label": "Video  Embed URL",
                "name": "video_url",
                "type": "text",
                "instructions": "Copy the url from the iframe embed share option.",
                "required": 0,
                "conditional_logic": [
                    [
                        {
                            "field": "field_57b865253be59",
                            "operator": "==",
                            "value": "video"
                        }
                    ]
                ],
                "wrapper": {
                    "width": "50",
                    "class": "",
                    "id": ""
                },
                "default_value": "",
                "placeholder": "",
                "prepend": "",
                "append": "",
                "maxlength": ""
            },
            {
                "key": "field_57b867643be62",
                "label": "Custom Gallery",
                "name": "gallery",
                "type": "gallery",
                "instructions": "",
                "required": 0,
                "conditional_logic": [
                    [
                        {
                            "field": "field_57b865253be59",
                            "operator": "==",
                            "value": "gallery"
                        }
                    ]
                ],
                "wrapper": {
                    "width": "",
                    "class": "",
                    "id": ""
                },
                "min": "",
                "max": "",
                "insert": "prepend",
                "library": "all",
                "min_width": "",
                "min_height": "",
                "min_size": "",
                "max_width": "",
                "max_height": "",
                "max_size": "",
                "mime_types": ""
            },
            {
                "key": "field_57b867f83be64",
                "label": "Text Content",
                "name": "text",
                "type": "wysiwyg",
                "instructions": "",
                "required": 0,
                "conditional_logic": [
                    [
                        {
                            "field": "field_57b865253be59",
                            "operator": "!=",
                            "value": "widget"
                        }
                    ]
                ],
                "wrapper": {
                    "width": "",
                    "class": "",
                    "id": ""
                },
                "default_value": "",
                "tabs": "all",
                "toolbar": "full",
                "media_upload": 1
            },
            {
                "key": "field_57b86a2e9edd2",
                "label": "Widget Area",
                "name": "widget",
                "type": "widget_area",
                "instructions": "",
                "required": 0,
                "conditional_logic": [
                    [
                        {
                            "field": "field_57b865253be59",
                            "operator": "==",
                            "value": "widget"
                        }
                    ]
                ],
                "wrapper": {
                    "width": "",
                    "class": "",
                    "id": ""
                },
                "allow_null": 1,
                "display_or_return": "return"
            }
        ],
        "location": [
            [
                {
                    "param": "post_type",
                    "operator": "==",
                    "value": "post"
                }
            ],
            [
                {
                    "param": "post_type",
                    "operator": "==",
                    "value": "page"
                }
            ]
        ],
        "menu_order": 0,
        "position": "normal",
        "style": "default",
        "label_placement": "top",
        "instruction_placement": "label",
        "hide_on_screen": "",
        "active": 0,
        "description": ""
    }
]